#
# There is insufficient memory for the Java Runtime Environment to continue.
# Native memory allocation (mmap) failed to map 134217728 bytes for Failed to commit area from 0x0000000081c00000 to 0x0000000089c00000 of length 134217728.
# Possible reasons:
#   The system is out of physical RAM or swap space
#   The process is running with CompressedOops enabled, and the Java Heap may be blocking the growth of the native heap
# Possible solutions:
#   Reduce memory load on the system
#   Increase physical memory or swap space
#   Check if swap backing store is full
#   Decrease Java heap size (-Xmx/-Xms)
#   Decrease number of Java threads
#   Decrease Java thread stack sizes (-Xss)
#   Set larger code cache with -XX:ReservedCodeCacheSize=
# This output file may be truncated or incomplete.
#
#  Out of Memory Error (c:/BuildAgent/work/5ff2f6c26000d570/src/hotspot/os/windows/os_windows.cpp:3281), pid=78000, tid=81156
#
# JRE version:  (11.0.4+10) (build )
# Java VM: OpenJDK 64-Bit Server VM (11.0.4+10-b304.69, mixed mode, aot, sharing, tiered, compressed oops, g1 gc, windows-amd64)
# No core dump will be written. Minidumps are not enabled by default on client versions of Windows
#

---------------  S U M M A R Y ------------

Command Line: org.jetbrains.git4idea.http.GitAskPassApp Password for 'https://barborka1@bitbucket.org': 

Host: Intel(R) Core(TM) i7-7500U CPU @ 2.70GHz, 4 cores, 7G,  Windows 10 , 64 bit Build 19041 (10.0.19041.804)
Time: Sat Mar  6 18:22:51 2021 Central Europe Standard Time elapsed time: 0 seconds (0d 0h 0m 0s)

---------------  T H R E A D  ---------------

Current thread (0x000001a0ff435000):  JavaThread "Unknown thread" [_thread_in_vm, id=81156, stack(0x0000008849500000,0x0000008849600000)]

Stack: [0x0000008849500000,0x0000008849600000]
Native frames: (J=compiled Java code, j=interpreted, Vv=VM code, C=native code)
V  [jvm.dll+0x5db31a]
V  [jvm.dll+0x70c395]
V  [jvm.dll+0x70d8b8]
V  [jvm.dll+0x70df83]
V  [jvm.dll+0x23dbb8]
V  [jvm.dll+0x5d8a74]
V  [jvm.dll+0x5cdb05]
V  [jvm.dll+0x2fa5bb]
V  [jvm.dll+0x2fa52a]
V  [jvm.dll+0x2fa402]
V  [jvm.dll+0x2ff2c6]
V  [jvm.dll+0x347893]
V  [jvm.dll+0x347f96]
V  [jvm.dll+0x347993]
V  [jvm.dll+0x2d4e28]
V  [jvm.dll+0x2d5fd7]
V  [jvm.dll+0x6eb717]
V  [jvm.dll+0x6ecf0c]
V  [jvm.dll+0x354fb9]
V  [jvm.dll+0x6d35be]
V  [jvm.dll+0x3bd673]
V  [jvm.dll+0x3bf9f1]
C  [java.exe+0x3763]
C  [java.exe+0x17a0c]
C  [KERNEL32.DLL+0x17034]
C  [ntdll.dll+0x4d241]


---------------  P R O C E S S  ---------------

Threads class SMR info:
_java_thread_list=0x000001a0fda83f80, length=0, elements={
}

Java Threads: ( => current thread )

Other Threads:
  0x000001a0ff44d800 GCTaskThread "GC Thread#0" [stack: 0x0000008849600000,0x0000008849700000] [id=77928]
  0x000001a0ff47e800 ConcurrentGCThread "G1 Main Marker" [stack: 0x0000008849700000,0x0000008849800000] [id=81044]
  0x000001a0ff47f800 ConcurrentGCThread "G1 Conc#0" [stack: 0x0000008849800000,0x0000008849900000] [id=73176]

[error occurred during error reporting (printing all threads), id 0xc0000005, EXCEPTION_ACCESS_VIOLATION (0xc0000005) at pc=0x00007ffd67a15727]

VM state:not at safepoint (not fully initialized)

VM Mutex/Monitor currently owned by a thread:  ([mutex/lock_event])
[0x000001a0ff432d20] Heap_lock - owner thread: 0x000001a0ff435000

Heap address: 0x0000000081c00000, size: 2020 MB, Compressed Oops mode: Non-zero based: 0x0000000081c00000
Narrow klass base: 0x0000000000000000, Narrow klass shift: 0

GC Heap History (0 events):
No events

Deoptimization events (0 events):
No events

Classes redefined (0 events):
No events

Internal exceptions (0 events):
No events

Events (0 events):
No events


Dynamic libraries:
0x00007ff69c200000 - 0x00007ff69c247000 	C:\Program Files\JetBrains\WebStorm 2019.2.3\jbr\bin\java.exe
0x00007ffdf2950000 - 0x00007ffdf2b46000 	C:\WINDOWS\SYSTEM32\ntdll.dll
0x00007ffdf16a0000 - 0x00007ffdf175d000 	C:\WINDOWS\System32\KERNEL32.DLL
0x00007ffdf05e0000 - 0x00007ffdf08a9000 	C:\WINDOWS\System32\KERNELBASE.dll
0x00007ffdf1ba0000 - 0x00007ffdf1d40000 	C:\WINDOWS\System32\USER32.dll
0x00007ffdf01c0000 - 0x00007ffdf01e2000 	C:\WINDOWS\System32\win32u.dll
0x00007ffdf0af0000 - 0x00007ffdf0b1a000 	C:\WINDOWS\System32\GDI32.dll
0x00007ffdf0480000 - 0x00007ffdf058b000 	C:\WINDOWS\System32\gdi32full.dll
0x00007ffdf0090000 - 0x00007ffdf012d000 	C:\WINDOWS\System32\msvcp_win.dll
0x00007ffdf08b0000 - 0x00007ffdf09b0000 	C:\WINDOWS\System32\ucrtbase.dll
0x00007ffddcd00000 - 0x00007ffddcf9b000 	C:\WINDOWS\WinSxS\amd64_microsoft.windows.common-controls_6595b64144ccf1df_6.0.19041.746_none_ca02b4b61b8320a4\COMCTL32.dll
0x00007ffdf1450000 - 0x00007ffdf14ee000 	C:\WINDOWS\System32\msvcrt.dll
0x00007ffdf1b10000 - 0x00007ffdf1b40000 	C:\WINDOWS\System32\IMM32.DLL
0x00007ffda9850000 - 0x00007ffda9867000 	C:\Program Files\JetBrains\WebStorm 2019.2.3\jbr\bin\vcruntime140.dll
0x00007ffda3e70000 - 0x00007ffda3f0d000 	C:\Program Files\JetBrains\WebStorm 2019.2.3\jbr\bin\msvcp140.dll
0x00007ffd67730000 - 0x00007ffd681e8000 	C:\Program Files\JetBrains\WebStorm 2019.2.3\jbr\bin\server\jvm.dll
0x00007ffdf0a40000 - 0x00007ffdf0aec000 	C:\WINDOWS\System32\ADVAPI32.dll
0x00007ffdf14f0000 - 0x00007ffdf158c000 	C:\WINDOWS\System32\sechost.dll
0x00007ffdf1770000 - 0x00007ffdf189b000 	C:\WINDOWS\System32\RPCRT4.dll
0x00007ffdf0e10000 - 0x00007ffdf0e18000 	C:\WINDOWS\System32\PSAPI.DLL
0x00007ffde2700000 - 0x00007ffde2709000 	C:\WINDOWS\SYSTEM32\WSOCK32.dll
0x00007ffdf1610000 - 0x00007ffdf167b000 	C:\WINDOWS\System32\WS2_32.dll
0x00007ffde54f0000 - 0x00007ffde5517000 	C:\WINDOWS\SYSTEM32\WINMM.dll
0x00007ffdeeee0000 - 0x00007ffdeeeea000 	C:\WINDOWS\SYSTEM32\VERSION.dll
0x00007ffdee6d0000 - 0x00007ffdee6e2000 	C:\WINDOWS\SYSTEM32\kernel.appcore.dll
0x00007ffde8990000 - 0x00007ffde89a1000 	C:\Program Files\JetBrains\WebStorm 2019.2.3\jbr\bin\verify.dll
0x00007ffdedb20000 - 0x00007ffdedd04000 	C:\WINDOWS\SYSTEM32\DBGHELP.DLL
0x00007ffde7b10000 - 0x00007ffde7b3c000 	C:\WINDOWS\SYSTEM32\dbgcore.DLL
0x00007ffdf0350000 - 0x00007ffdf03d0000 	C:\WINDOWS\System32\bcryptPrimitives.dll
0x00007ffdd7ba0000 - 0x00007ffdd7bc9000 	C:\Program Files\JetBrains\WebStorm 2019.2.3\jbr\bin\java.dll
0x00007ffdd7b80000 - 0x00007ffdd7b97000 	C:\Program Files\JetBrains\WebStorm 2019.2.3\jbr\bin\zip.dll
0x00007ffde9fa0000 - 0x00007ffde9fab000 	C:\Program Files\JetBrains\WebStorm 2019.2.3\jbr\bin\jimage.dll

dbghelp: loaded successfully - version: 4.0.5 - missing functions: none
symbol engine: initialized successfully - sym options: 0x614 - pdb path: .;C:\Program Files\JetBrains\WebStorm 2019.2.3\jbr\bin;C:\WINDOWS\SYSTEM32;C:\WINDOWS\WinSxS\amd64_microsoft.windows.common-controls_6595b64144ccf1df_6.0.19041.746_none_ca02b4b61b8320a4;C:\Program Files\JetBrains\WebStorm 2019.2.3\jbr\bin\server

VM Arguments:
java_command: org.jetbrains.git4idea.http.GitAskPassApp Password for 'https://barborka1@bitbucket.org': 
java_class_path (initial): C:/Program Files/JetBrains/WebStorm 2019.2.3/plugins/git4idea/lib/git4idea-rt.jar;C:/Program Files/JetBrains/WebStorm 2019.2.3/lib/xmlrpc-2.0.1.jar;C:/Program Files/JetBrains/WebStorm 2019.2.3/lib/commons-codec-1.13.jar;C:/Program Files/JetBrains/WebStorm 2019.2.3/lib/util.jar
Launcher Type: SUN_STANDARD

[Global flags]
     intx CICompilerCount                          = 3                                         {product} {ergonomic}
     uint ConcGCThreads                            = 1                                         {product} {ergonomic}
     uint G1ConcRefinementThreads                  = 4                                         {product} {ergonomic}
   size_t G1HeapRegionSize                         = 1048576                                   {product} {ergonomic}
    uintx GCDrainStackTargetSize                   = 64                                        {product} {ergonomic}
   size_t InitialHeapSize                          = 134217728                                 {product} {ergonomic}
   size_t MarkStackSize                            = 4194304                                   {product} {ergonomic}
   size_t MaxHeapSize                              = 2118123520                                {product} {ergonomic}
   size_t MinHeapDeltaBytes                        = 1048576                                   {product} {ergonomic}
    uintx NonNMethodCodeHeapSize                   = 5830092                                {pd product} {ergonomic}
    uintx NonProfiledCodeHeapSize                  = 122914074                              {pd product} {ergonomic}
    uintx ProfiledCodeHeapSize                     = 122914074                              {pd product} {ergonomic}
    uintx ReservedCodeCacheSize                    = 251658240                              {pd product} {ergonomic}
     bool SegmentedCodeCache                       = true                                      {product} {ergonomic}
     bool UseCompressedClassPointers               = true                                 {lp64_product} {ergonomic}
     bool UseCompressedOops                        = true                                 {lp64_product} {ergonomic}
     bool UseG1GC                                  = true                                      {product} {ergonomic}
     bool UseLargePagesIndividualAllocation        = false                                  {pd product} {ergonomic}

Logging:
Log output configuration:
 #0: stdout all=warning uptime,level,tags
 #1: stderr all=off uptime,level,tags

Environment Variables:
PATH=C:\Program Files\Git\mingw64\libexec\git-core;C:\Program Files\Git\mingw64\libexec\git-core;C:\Program Files\Git\mingw64\bin;C:\Program Files\Git\usr\bin;C:\Users\barborka\bin;C:\Users\barborka\AppData\Local\Programs\Python\Python38\Scripts;C:\Users\barborka\AppData\Local\Programs\Python\Python38;C:\Program Files (x86)\Common Files\Oracle\Java\javapath;C:\WINDOWS\system32;C:\WINDOWS;C:\WINDOWS\System32\Wbem;C:\WINDOWS\System32\WindowsPowerShell\v1.0;C:\WINDOWS\System32\OpenSSH;C:\Program Files\Git\cmd;C:\Program Files\MiKTeX 2.9\miktex\bin\x64;C:\ProgramData\ComposerSetup\bin;C:\ProgramData\chocolatey\bin;C:\Program Files (x86)\Yarn\bin;C:\Users\barborka\AppData\Roaming\nvm;C:\Program Files\nodejs;C:\Program Files (x86)\doxygen\bin;C:\Program Files (x86)\EAC MW klient;C:\Program Files\CMake\bin;C;C:\Users\barborka\AppData\Local\Programs\Python\Python38\Scripts;C:\Users\barborka\AppData\Local\Programs\Python\Python38;C:\Users\barborka\AppData\Local\Microsoft\WindowsApps;C:\ProgramData\PHP\php-7.3.7;C:\Program Files\JetBrains\WebStorm 2019.2.3\bin;C:\Program Files\JetBrains\PyCharm 2019.2.3\bin;C:\Users\barborka\AppData\Roaming\Composer\vendor\bin;C:\Users\barborka\AppData\Local\Programs\Microsoft VS Code\bin;C:\Users\barborka\node_modules;C:\Users\barborka\AppData\Local\Yarn\bin;C:\Users\barborka\AppData\Roaming\nvm;C:\Program Files\nodejs;C:\cygwin64\bin;C:\Users\barborka\AppData\Local\Google\Cloud SDK\google-cloud-sdk\bin
USERNAME=zahra
DISPLAY=:0.0
OS=Windows_NT
PROCESSOR_IDENTIFIER=Intel64 Family 6 Model 142 Stepping 9, GenuineIntel



---------------  S Y S T E M  ---------------

OS: Windows 10 , 64 bit Build 19041 (10.0.19041.804)

CPU:total 4 (initial active 4) (2 cores per cpu, 2 threads per core) family 6 model 142 stepping 9, cmov, cx8, fxsr, mmx, sse, sse2, sse3, ssse3, sse4.1, sse4.2, popcnt, avx, avx2, aes, clmul, erms, 3dnowpref, lzcnt, ht, tsc, tscinvbit, bmi1, bmi2, adx, fma

Memory: 4k page, system-wide physical 8079M (393M free)
TotalPageFile size 32645M (AvailPageFile size 42M)
current process WorkingSet (physical memory assigned to process): 9M, peak: 9M
current process commit charge ("private bytes"): 51M, peak: 179M

vm_info: OpenJDK 64-Bit Server VM (11.0.4+10-b304.69) for windows-amd64 JRE (11.0.4+10-b304.69), built on Sep  9 2019 11:39:50 by "" with MS VC++ 14.0 (VS2015)

END.
